<svg xmlns="http://www.w3.org/2000/svg" width="114.5" height="102.573" viewBox="0 0 114.5 102.573">
  <g id="robot" transform="translate(0 -2)" opacity="0.697" style="isolation: isolate">
    <path id="Path_96" data-name="Path 96" d="M29.313,29.156a7.156,7.156,0,1,0-7.156,7.156A7.165,7.165,0,0,0,29.313,29.156Zm-7.156,2.385a2.385,2.385,0,1,1,2.385-2.385A2.388,2.388,0,0,1,22.156,31.542Z" transform="translate(20.781 27.708)" fill="#faf5f5"/>
    <path id="Path_97" data-name="Path 97" d="M34.156,22a7.156,7.156,0,1,0,7.156,7.156A7.165,7.165,0,0,0,34.156,22Zm0,9.542a2.385,2.385,0,1,1,2.385-2.385A2.388,2.388,0,0,1,34.156,31.542Z" transform="translate(37.406 27.708)" fill="#faf5f5"/>
    <path id="Path_98" data-name="Path 98" d="M43.151,34.064a23.977,23.977,0,0,1-21.674,0A2.387,2.387,0,1,0,19.3,38.31a28.656,28.656,0,0,0,26.034,0,2.387,2.387,0,1,0-2.18-4.246Z" transform="translate(24.936 44.055)" fill="#faf5f5"/>
    <path id="Path_99" data-name="Path 99" d="M107.344,49.708h-7.156V42.552A11.941,11.941,0,0,0,88.26,30.625H59.635v-9.88a9.542,9.542,0,1,0-4.771,0v9.88H26.24A11.941,11.941,0,0,0,14.313,42.552v7.156H7.156A7.165,7.165,0,0,0,0,56.865V78.333A7.165,7.165,0,0,0,7.156,85.49h7.156v7.156A11.941,11.941,0,0,0,26.24,104.573H88.26a11.941,11.941,0,0,0,11.927-11.927V85.49h7.156a7.165,7.165,0,0,0,7.156-7.156V56.865A7.165,7.165,0,0,0,107.344,49.708ZM52.479,11.542a4.771,4.771,0,1,1,4.771,4.771A4.776,4.776,0,0,1,52.479,11.542ZM7.156,80.719a2.388,2.388,0,0,1-2.385-2.385V56.865a2.389,2.389,0,0,1,2.385-2.385h7.156v26.24Zm88.26,11.927A7.165,7.165,0,0,1,88.26,99.8H26.24a7.165,7.165,0,0,1-7.156-7.156V42.552A7.165,7.165,0,0,1,26.24,35.4H88.26a7.165,7.165,0,0,1,7.156,7.156Zm14.313-14.312a2.388,2.388,0,0,1-2.385,2.385h-7.156V54.479h7.156a2.389,2.389,0,0,1,2.385,2.385Z" transform="translate(0 0)" fill="#faf5f5"/>
  </g>
</svg>
